// Jest Snapshot v1, https://goo.gl/fbAQLP

exports[`Renders correctly 1`] = `
<div
  className="sc-bdVaJa brPpBK"
>
  <div
    className="sc-bwzfXH cHFGiM"
  >
    <a
      className="sc-htpNat blOEqq"
      href="/"
      onClick={[Function]}
    />
    <div
      className="sc-bxivhb butiKH"
    />
  </div>
</div>
`;

exports[`Renders correctly with given children 1`] = `
<div
  className="sc-bdVaJa brPpBK"
>
  <div
    className="sc-bwzfXH cHFGiM"
  >
    <a
      className="sc-htpNat blOEqq"
      href="/"
      onClick={[Function]}
    />
    <div
      className="sc-bxivhb butiKH"
    >
      My label
    </div>
  </div>
</div>
`;
